{
    "label": "radial gradient",
    "description": "Generate radial gradient.",
    "category": "generator",
    "version": "1.0",

    "program": "shaders/radialGradient.cl",

    "ressources": {
        "radius": { "type": "float" },
        "gain": { "type": "float" },
        "type": { "type": "cl_uint" },
        "offset": { "type": "QVector2D" },
        "output": {
            "type": "QCLImage2D",
            "channelFormat": "r",
            "channelType": "float"
        }
    },
    "exec": {"type": "SubStage", "kernel": "gradient"},
    "outputs": [{
        "ressourceID": "output"
    }],
    "properties": [{
            "label": "type",
            "widget": "ComboBox",
            "values": ["gaussian", "linear", "spherical"],
            "ressourceID": "type"
        },
        {
            "label": "radius",
            "min": 0.0,
            "default": 1.0,
            "ressourceID": "radius",
            "widget": "DoubleSpinBox"
        },
        {
            "label": "gain",
            "min": 0.0,
            "default": 1.0,
            "ressourceID": "gain",
            "widget": "DoubleSpinBox"
        },
        {
            "label": "position",
            "ressourceID": "offset",
            "widget": "SpinBoxVector2D"
        }
    ]
}